[
  {
    "model": "core.Command",
    "pk": 101,
    "fields": {
      "cmd": "ON",
      "argInt": "0"
    }
  },
  {
    "model": "core.Command",
    "pk": 102,
    "fields": {
      "cmd": "OFF",
      "argInt": "0"
    }
  },
  {
    "model": "core.Command",
    "pk": 103,
    "fields": {
      "cmd": "BELL",
      "argInt": "0"
    }
  },
  {
    "model": "core.Command",
    "pk": 104,
    "fields": {
      "cmd": "LEARN",
      "argInt": "0"
    }
  },
  {
    "model": "core.Command",
    "pk": 105,
    "fields": {
      "cmd": "ACTIVATE",
      "argInt": "0"
    }
  },
  {
    "model": "core.Command",
    "pk": 0,
    "fields": {
      "cmd": "DIM",
      "argInt": "0"
    }
  },
  {
    "model": "core.Command",
    "pk": 10,
    "fields": {
      "cmd": "DIM",
      "argInt": "10"
    }
  },
  {
    "model": "core.Command",
    "pk": 20,
    "fields": {
      "cmd": "DIM",
      "argInt": "20"
    }
  },
  {
    "model": "core.Command",
    "pk": 30,
    "fields": {
      "cmd": "DIM",
      "argInt": "30"
    }
  },
  {
    "model": "core.Command",
    "pk": 40,
    "fields": {
      "cmd": "DIM",
      "argInt": "40"
    }
  },
  {
    "model": "core.Command",
    "pk": 50,
    "fields": {
      "cmd": "DIM",
      "argInt": "50"
    }
  },
  {
    "model": "core.Command",
    "pk": 60,
    "fields": {
      "cmd": "DIM",
      "argInt": "60"
    }
  },
  {
    "model": "core.Command",
    "pk": 70,
    "fields": {
      "cmd": "DIM",
      "argInt": "70"
    }
  },
  {
    "model": "core.Command",
    "pk": 80,
    "fields": {
      "cmd": "DIM",
      "argInt": "80"
    }
  },
  {
    "model": "core.Command",
    "pk": 90,
    "fields": {
      "cmd": "DIM",
      "argInt": "90"
    }
  },
  {
    "model": "core.Command",
    "pk": 100,
    "fields": {
      "cmd": "DIM",
      "argInt": "100"
    }
  }
]